EESchema Schematic File Version 4
EELAYER 30 0
EELAYER END
$Descr A4 11693 8268
encoding utf-8
Sheet 3 4
Title ""
Date ""
Rev ""
Comp ""
Comment1 ""
Comment2 ""
Comment3 ""
Comment4 ""
$EndDescr
Text Notes 7550 7500 0    50   ~ 0
Status LED's
Text Notes 10650 7650 0    50   ~ 0
0.1
Wire Wire Line
	5500 3700 4350 3700
$Comp
L Device:R_US R2
U 1 1 60B9F8AE
P 7000 4250
F 0 "R2" H 7068 4296 50  0000 L CNN
F 1 "750" H 7068 4205 50  0000 L CNN
F 2 "Resistor_THT:R_Axial_DIN0309_L9.0mm_D3.2mm_P2.54mm_Vertical" V 7040 4240 50  0001 C CNN
F 3 "~" H 7000 4250 50  0001 C CNN
	1    7000 4250
	1    0    0    -1  
$EndComp
$Comp
L Device:R_US R4
U 1 1 60BA1B2E
P 7750 4250
F 0 "R4" H 7818 4296 50  0000 L CNN
F 1 "1k" H 7818 4205 50  0000 L CNN
F 2 "Resistor_THT:R_Axial_DIN0309_L9.0mm_D3.2mm_P2.54mm_Vertical" V 7790 4240 50  0001 C CNN
F 3 "~" H 7750 4250 50  0001 C CNN
	1    7750 4250
	1    0    0    -1  
$EndComp
$Comp
L Device:R_US R6
U 1 1 60BA222E
P 8450 4250
F 0 "R6" H 8518 4296 50  0000 L CNN
F 1 "1.5k" H 8518 4205 50  0000 L CNN
F 2 "Resistor_THT:R_Axial_DIN0309_L9.0mm_D3.2mm_P2.54mm_Vertical" V 8490 4240 50  0001 C CNN
F 3 "~" H 8450 4250 50  0001 C CNN
	1    8450 4250
	1    0    0    -1  
$EndComp
$Comp
L Device:R_US R3
U 1 1 60BA271D
P 7000 5000
F 0 "R3" H 7068 5046 50  0000 L CNN
F 1 "100k" H 7068 4955 50  0000 L CNN
F 2 "Resistor_THT:R_Axial_DIN0309_L9.0mm_D3.2mm_P2.54mm_Vertical" V 7040 4990 50  0001 C CNN
F 3 "~" H 7000 5000 50  0001 C CNN
	1    7000 5000
	1    0    0    -1  
$EndComp
$Comp
L Device:R_US R5
U 1 1 60BA2DB7
P 7750 5000
F 0 "R5" H 7818 5046 50  0000 L CNN
F 1 "2.2k" H 7818 4955 50  0000 L CNN
F 2 "Resistor_THT:R_Axial_DIN0309_L9.0mm_D3.2mm_P2.54mm_Vertical" V 7790 4990 50  0001 C CNN
F 3 "~" H 7750 5000 50  0001 C CNN
	1    7750 5000
	1    0    0    -1  
$EndComp
$Comp
L Device:R_US R7
U 1 1 60BA30D8
P 8450 5000
F 0 "R7" H 8518 5046 50  0000 L CNN
F 1 "10k" H 8518 4955 50  0000 L CNN
F 2 "Resistor_THT:R_Axial_DIN0309_L9.0mm_D3.2mm_P2.54mm_Vertical" V 8490 4990 50  0001 C CNN
F 3 "~" H 8450 5000 50  0001 C CNN
	1    8450 5000
	1    0    0    -1  
$EndComp
$Comp
L Device:LED D2
U 1 1 60BA3AAA
P 7400 5000
F 0 "D2" V 7439 4882 50  0000 R CNN
F 1 "Red" V 7348 4882 50  0000 R CNN
F 2 "LED_THT:LED_D3.0mm" H 7400 5000 50  0001 C CNN
F 3 "~" H 7400 5000 50  0001 C CNN
	1    7400 5000
	0    -1   -1   0   
$EndComp
$Comp
L Device:LED D4
U 1 1 60BA5428
P 8800 5000
F 0 "D4" V 8839 4882 50  0000 R CNN
F 1 "Green" V 8748 4882 50  0000 R CNN
F 2 "LED_THT:LED_D3.0mm" H 8800 5000 50  0001 C CNN
F 3 "~" H 8800 5000 50  0001 C CNN
	1    8800 5000
	0    -1   -1   0   
$EndComp
Wire Wire Line
	6100 3800 7000 3800
Wire Wire Line
	8450 3800 8450 4100
Wire Wire Line
	7750 4100 7750 3800
Connection ~ 7750 3800
Wire Wire Line
	7750 3800 8450 3800
Wire Wire Line
	7000 4100 7000 3800
Connection ~ 7000 3800
Wire Wire Line
	7000 3800 7750 3800
Wire Wire Line
	7000 4850 7000 4600
Wire Wire Line
	7750 4400 7750 4600
Wire Wire Line
	8450 4850 8450 4600
Wire Wire Line
	7400 4850 7400 4600
Wire Wire Line
	7400 4600 7000 4600
Connection ~ 7000 4600
Wire Wire Line
	7000 4600 7000 4400
Wire Wire Line
	8150 4600 7750 4600
Connection ~ 7750 4600
Wire Wire Line
	7750 4600 7750 4850
Wire Wire Line
	8800 4850 8800 4600
Wire Wire Line
	8800 4600 8450 4600
Connection ~ 8450 4600
Wire Wire Line
	8450 4600 8450 4400
Wire Wire Line
	7000 5150 7000 5500
Wire Wire Line
	7000 5500 7400 5500
Wire Wire Line
	8800 5150 8800 5500
Connection ~ 8800 5500
Wire Wire Line
	8450 5150 8450 5500
Connection ~ 8450 5500
Wire Wire Line
	8450 5500 8800 5500
Wire Wire Line
	8150 5150 8150 5500
Connection ~ 8150 5500
Wire Wire Line
	8150 5500 8450 5500
Wire Wire Line
	7750 5150 7750 5500
Connection ~ 7750 5500
Wire Wire Line
	7750 5500 8150 5500
Wire Wire Line
	7400 5150 7400 5500
Connection ~ 7400 5500
Wire Wire Line
	7400 5500 7750 5500
Wire Wire Line
	5350 4200 5350 3900
Wire Wire Line
	5350 3900 5500 3900
Wire Wire Line
	8800 5500 8800 5750
Text GLabel 5350 4200 3    50   Input ~ 0
GND
Text GLabel 8800 5750 3    50   Input ~ 0
GND
Text GLabel 5700 4100 3    50   Input ~ 0
-20V
Text GLabel 5700 3500 1    50   Input ~ 0
20V
Text HLabel 4350 3700 0    50   Input ~ 0
LED_Status
Text HLabel 8450 3800 2    50   Input ~ 0
VLED
Wire Wire Line
	8150 4850 8150 4600
$Comp
L Device:LED D3
U 1 1 60BA4D56
P 8150 5000
F 0 "D3" V 8189 4882 50  0000 R CNN
F 1 "Orange" V 8098 4882 50  0000 R CNN
F 2 "LED_THT:LED_D3.0mm" H 8150 5000 50  0001 C CNN
F 3 "~" H 8150 5000 50  0001 C CNN
	1    8150 5000
	0    -1   -1   0   
$EndComp
Text Notes 8250 7650 0    50   ~ 0
2021-06-02
$Comp
L Amplifier_Operational:LM741 U1
U 1 1 60BC7117
P 5800 3800
F 0 "U1" H 6144 3846 50  0000 L CNN
F 1 "LM741" H 6144 3755 50  0000 L CNN
F 2 "Package_TO_SOT_THT:TO-99-8" H 5850 3850 50  0001 C CNN
F 3 "http://www.ti.com/lit/ds/symlink/lm741.pdf" H 5950 3950 50  0001 C CNN
	1    5800 3800
	1    0    0    -1  
$EndComp
NoConn ~ 5900 4100
NoConn ~ 5800 4100
Text Notes 8650 6900 0    118  ~ 0
NDXTYR006
$EndSCHEMATC
